{
  "aggregations": {
    "access_right": {
      "buckets": [
        {
          "doc_count": 24, 
          "key": "closed"
        }, 
        {
          "doc_count": 4, 
          "key": "open"
        }
      ], 
      "doc_count_error_upper_bound": 0, 
      "sum_other_doc_count": 0
    }, 
    "resource_type": {
      "buckets": [], 
      "doc_count_error_upper_bound": 0, 
      "sum_other_doc_count": 0
    }
  }, 
  "hits": {
    "hits": [
      {
        "created": "2020-02-20T14:35:36.436808+00:00", 
        "id": "n0jbr-gvc75", 
        "links": {
          "files": "https://127.0.0.1:5000/api/records/n0jbr-gvc75/files", 
          "self": "https://127.0.0.1:5000/api/records/n0jbr-gvc75"
        }, 
        "metadata": {
          "_access": {
            "files_restricted": false, 
            "metadata_restricted": false
          }, 
          "access_right": "closed", 
          "category": "Research", 
          "confidential": false, 
          "contributors": [
            {
              "link": "https://pure01.tugraz.at/ws/api/514/persons/f0f60b8b-a7cb-41e9-ad36-606d3e890a3b", 
              "name": "Wru\u00df, Maria", 
              "organisationalUnit": "Administration (95021)", 
              "personRole": "Author"
            }
          ], 
          "createdDatePure": "2019-08-07T06:15:21.946+0000", 
          "managingOrganisationalUnit": "Administration (95021)", 
          "modifiedDatePure": "2019-08-07T06:15:21.946+0000", 
          "organisationalUnits": [
            {
              "link": "https://pure01.tugraz.at/ws/api/514/organisational-units/650fb44b-f9dd-490c-b6e0-4b3e77b55c26", 
              "name": "Administration (95021)"
            }
          ], 
          "owners": [
            1
          ], 
          "peerReview": false, 
          "publicationDatePure": "2019", 
          "publicationStatus": "Published", 
          "publication_date": "2020-02-20", 
          "pureId": "19530666", 
          "recid": "n0jbr-gvc75", 
          "title": "test", 
          "totalNumberOfAuthors": 1, 
          "type_p": "Article", 
          "uuid": "5f8e8d34-d3f2-4695-9e82-c35783cb0316", 
          "workflow": "For validation"
        }, 
        "revision": 0, 
        "updated": "2020-02-20T14:35:36.436816+00:00"
      }, 
      {
        "created": "2020-02-20T14:35:32.255023+00:00", 
        "id": "yncc3-f6w11", 
        "links": {
          "files": "https://127.0.0.1:5000/api/records/yncc3-f6w11/files", 
          "self": "https://127.0.0.1:5000/api/records/yncc3-f6w11"
        }, 
        "metadata": {
          "_access": {
            "files_restricted": false, 
            "metadata_restricted": false
          }, 
          "access_right": "open", 
          "category": "Research", 
          "confidential": false, 
          "contributors": [
            {
              "link": "https://pure01.tugraz.at/ws/api/514/persons/d5c827b6-076b-48fb-b842-f72df3cec7f0", 
              "name": "K\u00f6nighofer, Philip", 
              "organisationalUnit": "Institute of Applied Information Processing and Communications (7050)", 
              "personRole": "Author"
            }, 
            {
              "link": "https://pure01.tugraz.at/ws/api/514/external-persons/e6f30b9e-0f1e-469b-b13c-993da9dc9540", 
              "name": "Bubba, Hubba", 
              "personRole": "Author", 
              "type_p": "External person"
            }
          ], 
          "createdDatePure": "2019-07-15T12:53:01.449+0000", 
          "managingOrganisationalUnit": "Institute of Applied Information Processing and Communications (7050)", 
          "modifiedDatePure": "2019-07-15T12:53:01.449+0000", 
          "organisationalUnits": [
            {
              "link": "https://pure01.tugraz.at/ws/api/514/organisational-units/77857978-adc4-4d9d-877c-1283cbd9199f", 
              "name": "Institute of Applied Information Processing and Communications (7050)"
            }
          ], 
          "owners": [
            1
          ], 
          "peerReview": true, 
          "publicationDatePure": "2018", 
          "publicationStatus": "In preparation", 
          "publication_date": "2020-02-20", 
          "publisherName": "Best Publishers", 
          "pureId": "19528264", 
          "recid": "yncc3-f6w11", 
          "title": "Originalsprache Titel", 
          "totalNumberOfAuthors": 2, 
          "type_p": "Conference contribution", 
          "uuid": "31dc78d0-c5c2-4839-b6da-6513b4179f54", 
          "versionFiles": [
            {
              "fileAccessType": "Open", 
              "fileDigest": "838F57049CED88AE01BB78354AB94FD62000ECEC", 
              "fileDigestAlgorithm": "SHA1", 
              "fileModifBy": "weberp", 
              "fileModifDate": "2019-07-15T12:53:01.448+0000", 
              "fileName": "dreimobilesfestnetz_eb.pdf", 
              "fileSize": 220190, 
              "fileType": "application/pdf"
            }
          ], 
          "workflow": "For validation"
        }, 
        "revision": 0, 
        "updated": "2020-02-20T14:35:32.255030+00:00"
      }, 
      {
        "created": "2020-02-20T14:35:27.988804+00:00", 
        "id": "1cdhf-7nw74", 
        "links": {
          "files": "https://127.0.0.1:5000/api/records/1cdhf-7nw74/files", 
          "self": "https://127.0.0.1:5000/api/records/1cdhf-7nw74"
        }, 
        "metadata": {
          "_access": {
            "files_restricted": false, 
            "metadata_restricted": false
          }, 
          "access_right": "closed", 
          "category": "Research", 
          "confidential": false, 
          "contributors": [
            {
              "link": "https://pure01.tugraz.at/ws/api/514/persons/f0f60b8b-a7cb-41e9-ad36-606d3e890a3b", 
              "name": "Wru\u00df, Maria", 
              "organisationalUnit": "Administration (95021)", 
              "personRole": "Author"
            }
          ], 
          "createdDatePure": "2019-06-05T11:53:04.014+0000", 
          "managingOrganisationalUnit": "Administration (95021)", 
          "modifiedDatePure": "2019-06-05T11:53:04.014+0000", 
          "organisationalUnits": [
            {
              "link": "https://pure01.tugraz.at/ws/api/514/organisational-units/650fb44b-f9dd-490c-b6e0-4b3e77b55c26", 
              "name": "Administration (95021)"
            }
          ], 
          "owners": [
            1
          ], 
          "peerReview": true, 
          "publicationDatePure": "2019", 
          "publicationStatus": "Published", 
          "publication_date": "2020-02-20", 
          "pureId": "19434264", 
          "recid": "1cdhf-7nw74", 
          "title": "test", 
          "totalNumberOfAuthors": 1, 
          "type_p": "Article", 
          "uuid": "7e91f3ad-5913-407d-95b1-8ffdf6d18f59", 
          "workflow": "For validation"
        }, 
        "revision": 0, 
        "updated": "2020-02-20T14:35:27.988815+00:00"
      }, 
      {
        "created": "2020-02-20T14:35:23.855874+00:00", 
        "id": "c3aq7-meg51", 
        "links": {
          "files": "https://127.0.0.1:5000/api/records/c3aq7-meg51/files", 
          "self": "https://127.0.0.1:5000/api/records/c3aq7-meg51"
        }, 
        "metadata": {
          "_access": {
            "files_restricted": false, 
            "metadata_restricted": false
          }, 
          "access_right": "closed", 
          "category": "Research", 
          "confidential": false, 
          "contributors": [
            {
              "link": "https://pure01.tugraz.at/ws/api/514/external-persons/70826100-2c6b-4ca9-947f-e8fdd66b36ae", 
              "name": "Dummler, Max", 
              "personRole": "Author", 
              "type_p": "External person"
            }, 
            {
              "link": "https://pure01.tugraz.at/ws/api/514/persons/f18c9390-4845-44ad-a790-c15fc83f8e79", 
              "name": "Brantner, Brigitte M.", 
              "organisationalUnit": "Service und Information (95022)", 
              "personRole": "Author"
            }, 
            {
              "link": "https://pure01.tugraz.at/ws/api/514/persons/14a293cd-8642-471e-814e-e00a4c9c4929", 
              "name": "Ladurner, Christoph", 
              "organisationalUnit": "Serials Management, Open Access and Digitisation (95023)", 
              "personRole": "Author"
            }
          ], 
          "createdDatePure": "2019-02-28T12:17:37.867+0000", 
          "managingOrganisationalUnit": "Service und Information (95022)", 
          "modifiedDatePure": "2019-04-10T10:17:19.146+0000", 
          "organisationalUnits": [
            {
              "link": "https://pure01.tugraz.at/ws/api/514/organisational-units/766e6980-a6cd-45dd-a946-2b0f74ca8213", 
              "name": "Service und Information (95022)"
            }, 
            {
              "link": "https://pure01.tugraz.at/ws/api/514/organisational-units/fdb7051b-0b7d-4cc1-936f-94232f231381", 
              "name": "Serials Management, Open Access and Digitisation (95023)"
            }
          ], 
          "owners": [
            1
          ], 
          "peerReview": false, 
          "publicationDatePure": "2019", 
          "publicationStatus": "Published", 
          "publication_date": "2020-02-20", 
          "pureId": "19303480", 
          "recid": "c3aq7-meg51", 
          "title": "Testtitel", 
          "totalNumberOfAuthors": 3, 
          "type_p": "Article", 
          "uuid": "a75f158e-13c2-435a-8241-6584dc8ff2d8", 
          "workflow": "Validated"
        }, 
        "revision": 0, 
        "updated": "2020-02-20T14:35:23.855883+00:00"
      }, 
      {
        "created": "2020-02-20T14:35:19.724049+00:00", 
        "id": "b5agt-yn959", 
        "links": {
          "files": "https://127.0.0.1:5000/api/records/b5agt-yn959/files", 
          "self": "https://127.0.0.1:5000/api/records/b5agt-yn959"
        }, 
        "metadata": {
          "_access": {
            "files_restricted": false, 
            "metadata_restricted": false
          }, 
          "access_right": "closed", 
          "category": "Research", 
          "confidential": false, 
          "contributors": [
            {
              "link": "https://pure01.tugraz.at/ws/api/514/persons/14a293cd-8642-471e-814e-e00a4c9c4929", 
              "name": "Ladurner, Christoph", 
              "organisationalUnit": "Serials Management, Open Access and Digitisation (95023)", 
              "personRole": "Author"
            }, 
            {
              "link": "https://pure01.tugraz.at/ws/api/514/persons/f0f60b8b-a7cb-41e9-ad36-606d3e890a3b", 
              "name": "Wru\u00df, Maria", 
              "organisationalUnit": "Administration (95021)", 
              "personRole": "Author"
            }
          ], 
          "createdDatePure": "2019-02-28T11:56:16.628+0000", 
          "managingOrganisationalUnit": "Serials Management, Open Access and Digitisation (95023)", 
          "modifiedDatePure": "2019-04-01T06:52:36.316+0000", 
          "organisationalUnits": [
            {
              "link": "https://pure01.tugraz.at/ws/api/514/organisational-units/fdb7051b-0b7d-4cc1-936f-94232f231381", 
              "name": "Serials Management, Open Access and Digitisation (95023)"
            }, 
            {
              "link": "https://pure01.tugraz.at/ws/api/514/organisational-units/650fb44b-f9dd-490c-b6e0-4b3e77b55c26", 
              "name": "Administration (95021)"
            }
          ], 
          "owners": [
            1
          ], 
          "peerReview": true, 
          "publicationDatePure": "2019", 
          "publicationStatus": "Published", 
          "publication_date": "2020-02-20", 
          "pureId": "19303359", 
          "recid": "b5agt-yn959", 
          "title": "der unglaublich wichtige titel 2", 
          "totalNumberOfAuthors": 2, 
          "type_p": "Conference contribution", 
          "uuid": "ff4b3bea-5104-4d6c-9367-1a7ac035a0b8", 
          "versionFiles": [
            {
              "fileAccessType": "Open", 
              "fileDigest": "E5FA44F2B31C1FB553B6021E7360D07D5D91FF5E", 
              "fileDigestAlgorithm": "SHA1", 
              "fileModifBy": "chrlad", 
              "fileModifDate": "2019-02-14T13:14:47.895+0000", 
              "fileName": "test.txt", 
              "fileSize": 2, 
              "fileType": "text/plain"
            }
          ], 
          "workflow": "For validation"
        }, 
        "revision": 0, 
        "updated": "2020-02-20T14:35:19.724056+00:00"
      }, 
      {
        "created": "2020-02-20T14:35:15.524087+00:00", 
        "id": "v35ez-4hg10", 
        "links": {
          "files": "https://127.0.0.1:5000/api/records/v35ez-4hg10/files", 
          "self": "https://127.0.0.1:5000/api/records/v35ez-4hg10"
        }, 
        "metadata": {
          "_access": {
            "files_restricted": false, 
            "metadata_restricted": false
          }, 
          "access_right": "closed", 
          "category": "Research", 
          "confidential": false, 
          "contributors": [
            {
              "link": "https://pure01.tugraz.at/ws/api/514/persons/14a293cd-8642-471e-814e-e00a4c9c4929", 
              "name": "Ladurner, Christoph", 
              "organisationalUnit": "Serials Management, Open Access and Digitisation (95023)", 
              "personRole": "Author"
            }, 
            {
              "link": "https://pure01.tugraz.at/ws/api/514/persons/f0f60b8b-a7cb-41e9-ad36-606d3e890a3b", 
              "name": "Wru\u00df, Maria", 
              "organisationalUnit": "Administration (95021)", 
              "personRole": "Author"
            }
          ], 
          "createdDatePure": "2019-02-14T13:14:47.899+0000", 
          "managingOrganisationalUnit": "Serials Management, Open Access and Digitisation (95023)", 
          "modifiedDatePure": "2019-02-14T13:14:47.899+0000", 
          "organisationalUnits": [
            {
              "link": "https://pure01.tugraz.at/ws/api/514/organisational-units/fdb7051b-0b7d-4cc1-936f-94232f231381", 
              "name": "Serials Management, Open Access and Digitisation (95023)"
            }, 
            {
              "link": "https://pure01.tugraz.at/ws/api/514/organisational-units/650fb44b-f9dd-490c-b6e0-4b3e77b55c26", 
              "name": "Administration (95021)"
            }
          ], 
          "owners": [
            1
          ], 
          "peerReview": true, 
          "publicationDatePure": "2019", 
          "publicationStatus": "Published", 
          "publication_date": "2020-02-20", 
          "pureId": "19273766", 
          "recid": "v35ez-4hg10", 
          "title": "der unglaublich wichtige titel", 
          "totalNumberOfAuthors": 2, 
          "type_p": "Conference contribution", 
          "uuid": "735d870d-cbfb-4c00-8615-330819e0bf11", 
          "versionFiles": [
            {
              "fileAccessType": "Open", 
              "fileDigest": "E5FA44F2B31C1FB553B6021E7360D07D5D91FF5E", 
              "fileDigestAlgorithm": "SHA1", 
              "fileModifBy": "chrlad", 
              "fileModifDate": "2019-02-14T13:14:47.895+0000", 
              "fileName": "test.txt", 
              "fileSize": 2, 
              "fileType": "text/plain"
            }
          ], 
          "workflow": "For validation"
        }, 
        "revision": 0, 
        "updated": "2020-02-20T14:35:15.524110+00:00"
      }, 
      {
        "created": "2020-02-20T14:35:11.256600+00:00", 
        "id": "j80n1-fs275", 
        "links": {
          "files": "https://127.0.0.1:5000/api/records/j80n1-fs275/files", 
          "self": "https://127.0.0.1:5000/api/records/j80n1-fs275"
        }, 
        "metadata": {
          "_access": {
            "files_restricted": false, 
            "metadata_restricted": false
          }, 
          "access_right": "open", 
          "category": "Research", 
          "confidential": false, 
          "contributors": [
            {
              "link": "https://pure01.tugraz.at/ws/api/514/persons/14a293cd-8642-471e-814e-e00a4c9c4929", 
              "name": "Ladurner, Christoph", 
              "organisationalUnit": "Serials Management, Open Access and Digitisation (95023)", 
              "personRole": "Author"
            }, 
            {
              "link": "https://pure01.tugraz.at/ws/api/514/persons/f0f60b8b-a7cb-41e9-ad36-606d3e890a3b", 
              "name": "Wru\u00df, Maria", 
              "organisationalUnit": "Administration (95021)", 
              "personRole": "Author"
            }
          ], 
          "createdDatePure": "2019-01-29T09:58:49.835+0000", 
          "managingOrganisationalUnit": "Serials Management, Open Access and Digitisation (95023)", 
          "modifiedDatePure": "2019-05-14T09:51:12.079+0000", 
          "organisationalUnits": [
            {
              "link": "https://pure01.tugraz.at/ws/api/514/organisational-units/fdb7051b-0b7d-4cc1-936f-94232f231381", 
              "name": "Serials Management, Open Access and Digitisation (95023)"
            }, 
            {
              "link": "https://pure01.tugraz.at/ws/api/514/organisational-units/649cf008-b5a6-4f15-a669-32bad271995a", 
              "name": "University Library and Archives (95020)"
            }, 
            {
              "link": "https://pure01.tugraz.at/ws/api/514/organisational-units/650fb44b-f9dd-490c-b6e0-4b3e77b55c26", 
              "name": "Administration (95021)"
            }
          ], 
          "owners": [
            1
          ], 
          "peerReview": false, 
          "publicationDatePure": "2019", 
          "publicationStatus": "Published", 
          "publication_date": "2020-02-20", 
          "pureId": "19239080", 
          "recid": "j80n1-fs275", 
          "title": "Drucksachetr", 
          "totalNumberOfAuthors": 2, 
          "type_p": "Article", 
          "uuid": "3e5bc032-716b-4e4b-8e59-fe202e9e9596", 
          "versionFiles": [
            {
              "fileAccessType": "Open", 
              "fileDigest": "E5FA44F2B31C1FB553B6021E7360D07D5D91FF5E", 
              "fileDigestAlgorithm": "SHA1", 
              "fileModifBy": "chrlad", 
              "fileModifDate": "2019-01-29T11:15:46.243+0000", 
              "fileName": "test.txt", 
              "fileSize": 2, 
              "fileType": "text/plain"
            }
          ], 
          "workflow": "For validation"
        }, 
        "revision": 0, 
        "updated": "2020-02-20T14:35:11.256608+00:00"
      }, 
      {
        "created": "2020-02-20T14:31:51.482372+00:00", 
        "id": "xzk7w-6kn22", 
        "links": {
          "files": "https://127.0.0.1:5000/api/records/xzk7w-6kn22/files", 
          "self": "https://127.0.0.1:5000/api/records/xzk7w-6kn22"
        }, 
        "metadata": {
          "_access": {
            "files_restricted": false, 
            "metadata_restricted": false
          }, 
          "access_right": "open", 
          "category": "Research", 
          "confidential": false, 
          "contributors": [
            {
              "link": "https://pure01.tugraz.at/ws/api/514/persons/2e935ee3-36d1-4981-a8c7-d3fe243bcb88", 
              "name": "Holzinger, Andreas", 
              "organisationalUnit": "Institute of Interactive Systems and Data Science (7060)", 
              "personRole": "Author"
            }
          ], 
          "createdDatePure": "2016-02-26T01:52:15.757+0000", 
          "managingOrganisationalUnit": "Institute of Interactive Systems and Data Science (7060)", 
          "modifiedDatePure": "2020-02-02T00:07:32.961+0000", 
          "organisationalUnits": [
            {
              "link": "https://pure01.tugraz.at/ws/api/514/organisational-units/5a3f13f5-2fdf-48d7-a4ee-d6faaf8aa934", 
              "name": "Institute of Interactive Systems and Data Science (7060)"
            }
          ], 
          "owners": [
            1
          ], 
          "peerReview": false, 
          "publicationDatePure": "2013", 
          "publicationStatus": "Published", 
          "publication_date": "2020-02-20", 
          "publisherName": "Springer", 
          "pureId": "1820827", 
          "recid": "xzk7w-6kn22", 
          "title": "Human\u2013Computer Interaction & Knowledge Discovery HCI-KDD : What is the benefit of bringing those two fields to work together?", 
          "totalNumberOfAuthors": 1, 
          "type_p": "Chapter", 
          "uuid": "55c10958-7697-4a03-853c-7d2145b41390", 
          "versionFiles": [
            {
              "fileAccessType": "Open", 
              "fileDigest": "71F13ED982FCF8EE24696053F0A5F2D8E5A4FB27", 
              "fileDigestAlgorithm": "SHA1", 
              "fileModifBy": "root", 
              "fileModifDate": "2016-02-26T01:52:15.753+0000", 
              "fileName": "81270319.pdf", 
              "fileSize": 1902843, 
              "fileType": "81270319.pdf"
            }
          ], 
          "workflow": "For validation"
        }, 
        "revision": 0, 
        "updated": "2020-02-20T14:31:51.482379+00:00"
      }, 
      {
        "created": "2020-02-20T08:13:31.102761+00:00", 
        "id": "gmetr-cja27", 
        "links": {
          "files": "https://127.0.0.1:5000/api/records/gmetr-cja27/files", 
          "self": "https://127.0.0.1:5000/api/records/gmetr-cja27"
        }, 
        "metadata": {
          "_access": {
            "files_restricted": false, 
            "metadata_restricted": false
          }, 
          "access_right": "closed", 
          "category": "Research", 
          "confidential": false, 
          "contributors": [
            {
              "name": "Rindler, Wolfgang", 
              "organisationalUnit": "Institute of Materials Science, Joining and Forming (3030)", 
              "personRole": "Author"
            }, 
            {
              "link": "https://pure01.tugraz.at/ws/api/514/persons/62c69306-3be1-4b92-8623-e1e5065ee4c0", 
              "name": "Kozeschnik, Ernst", 
              "organisationalUnit": "Institute of Materials Science, Joining and Forming (3030)", 
              "personRole": "Author"
            }, 
            {
              "link": "https://pure01.tugraz.at/ws/api/514/persons/22ac596f-f9be-4a11-b2d4-5bb404c8deb3", 
              "name": "Buchmayr, Bruno", 
              "organisationalUnit": "Institute of Materials Science, Joining and Forming (3030)", 
              "personRole": "Author"
            }
          ], 
          "createdDatePure": "2016-02-25T21:48:19.097+0000", 
          "managingOrganisationalUnit": "Institute of Materials Science, Joining and Forming (3030)", 
          "modifiedDatePure": "2020-02-09T00:00:10.904+0000", 
          "organisationalUnits": [
            {
              "link": "https://pure01.tugraz.at/ws/api/514/organisational-units/f83c8643-c93d-4163-9196-574cafbcbede", 
              "name": "Institute of Materials Science, Joining and Forming (3030)"
            }
          ], 
          "owners": [
            1
          ], 
          "peerReview": false, 
          "publicationDatePure": "2000", 
          "publicationStatus": "Published", 
          "publication_date": "2020-02-20", 
          "pureId": "1064722", 
          "recid": "gmetr-cja27", 
          "title": "Computer simulation of the brittle temperature range (BTR) for hot cracking in steels", 
          "totalNumberOfAuthors": 3, 
          "type_p": "Article", 
          "uuid": "d1af747b-ad01-4cde-b26b-56e1a12e5ffe", 
          "workflow": "For validation"
        }, 
        "revision": 0, 
        "updated": "2020-02-20T08:13:31.102775+00:00"
      }, 
      {
        "created": "2020-02-20T08:13:27.240586+00:00", 
        "id": "1b2t9-rbh91", 
        "links": {
          "files": "https://127.0.0.1:5000/api/records/1b2t9-rbh91/files", 
          "self": "https://127.0.0.1:5000/api/records/1b2t9-rbh91"
        }, 
        "metadata": {
          "_access": {
            "files_restricted": false, 
            "metadata_restricted": false
          }, 
          "access_right": "closed", 
          "category": "Research", 
          "confidential": false, 
          "contributors": [
            {
              "link": "https://pure01.tugraz.at/ws/api/514/persons/fefbf164-7e15-46ab-a44f-4dd4765cbc8d", 
              "name": "Benedikt, Martin", 
              "organisationalUnit": "Virtual Vehicle Research Center (ViF) (98830)", 
              "personRole": "Author"
            }
          ], 
          "createdDatePure": "2016-02-25T21:48:18.893+0000", 
          "managingOrganisationalUnit": "Virtual Vehicle Research Center (ViF) (98830)", 
          "modifiedDatePure": "2020-01-05T00:00:28.289+0000", 
          "organisationalUnits": [
            {
              "link": "https://pure01.tugraz.at/ws/api/514/organisational-units/f1d52104-18a3-483c-ba3a-2754e36b50bb", 
              "name": "Virtual Vehicle Research Center (ViF) (98830)"
            }
          ], 
          "owners": [
            1
          ], 
          "peerReview": true, 
          "publicationDatePure": "2014", 
          "publicationStatus": "Published", 
          "publication_date": "2020-02-20", 
          "pureId": "1064699", 
          "recid": "1b2t9-rbh91", 
          "title": "Regelungstechnische Aspekte bei der nicht-iterativen Co-Simulation", 
          "totalNumberOfAuthors": 1, 
          "type_p": "Article", 
          "uuid": "45275722-0fed-4f3b-bdcf-acfc931166b5", 
          "workflow": "For validation"
        }, 
        "revision": 0, 
        "updated": "2020-02-20T08:13:27.240592+00:00"
      }
    ], 
    "total": 28
  }, 
  "links": {
    "next": "https://127.0.0.1:5000/api/records/?sort=mostrecent&size=10&page=2", 
    "self": "https://127.0.0.1:5000/api/records/?sort=mostrecent&size=10&page=1"
  }
}